Working with United States ZIP Code and ZCTA Data • zippeR
…
pop12_mo3 <- zi_aggregate(pop12, year = 2012, extensive = "B01003_001", survey = "acs5", zcta = geo12_3$ZCTA3)

The zi_aggregate() function requires that you specify two sets of variable lists - those that are extensive (i.e. count data) and those that are intensive (i.e. ratio or median data). For extensive data, zi_aggregate() sums the estimates and applies a formula to the margins of error (the square root of the sum of squared margins of error for each five-digit ZCTA within a three-digit region). For intensive variables, a weighted mean or median is used for both the estimate and the margin of error. Note that you can pipe this workflow and can specify multiple variables at once for aggregation:

zi_get_demographics(year = 2020, variables = c("B01003_001", "B19083_001"), survey = "acs5") %>%
  zi_aggregate(year = 2020, extensive = "B01003_001", intensive = "B19083_001", survey = "acs5") -> demo20

The variables, table (which can be used in place of variables for zi_get_demographics()), extensive, and intensive arguments are not validated before being passed via tidycensus to the Census Bureau, so mis-formatted variable or table names will generate potentially cryptic errors.

ZIP Code to ZCTA Crosswalks

Finally, zippeR provides an interface for accessing the UDS Mapper ZIP to ZCTA crosswalk files. Crosswalk files are critical because not all ZIP codes are in the exact same ZCTA. For example, the first two entries below have very different ZCTAs. The UDS files are available from 2010 through 2021 in a standardized format:

> zi_load_crosswalk(year = 2020)
# A tibble: 41,096 × 6                                                                                                                                                                                 
   ZIP   PO_NAME    STATE ZIP_TYPE                             ZCTA  zip_join_type       
   <chr> <chr>      <chr> <chr>                                <chr> <chr>               
 1 00501 Holtsville NY    Post Office or large volume customer 11742 Spatial join to ZCTA
 2 00544 Holtsville NY    Post Office or large volume customer 11742 Spatial join to ZCTA
 3 00601 Adjuntas   PR    ZIP Code Area                        00601 ZIP Matches ZCTA    
 4 00602 Aguada     PR    ZIP Code Area                        00602 ZIP Matches ZCTA    
 5 00603 Aguadilla  PR    ZIP Code Area                        00603 ZIP Matches ZCTA    
 6 00604 Aguadilla  PR    Post Office or large volume customer 00603 Spatial join to ZCTA
 7 00605 Aguadilla  PR    Post Office or large volume customer 00603 Spatial join to ZCTA
 8 00606 Maricao    PR    ZIP Code Area                        00606 ZIP Matches ZCTA    
 9 00610 Anasco     PR    ZIP Code Area                        00610 ZIP Matches ZCTA    
10 00611 Angeles    PR    Post Office or large volume customer 00641 Spatial join to ZCTA
# … with 41,086 more rows
…
